{
    "count" : 33,
    "next" : "http://sandbox.traansmission.com/api/shipments/?page=3",
    "previous" : "http://sandbox.traansmission.com/api/shipments/?page=1",
    "results" :      [
        {
            "carrier" : null,
            "carrier_is_approved" : 0,
            "created_at" : "2015-04-24T16:06:44.995Z",
            "delivered_at" : null,
            "delivery_address" : "6833 WEST 75TH STREET, Chicago, IL, 60638",
            "delivery_dock" : "",
            "delivery_latitude" : "41.7547941",
            "delivery_longitude" : "-87.79017090000002",
            "delivery_status" : 1,
            "delivery_time_range_end" : "2015-04-26T16:00:57Z",
            "delivery_time_range_start" : "2015-04-26T16:00:57Z",
            "delivery_tz" : "US/Eastern",
            "extra_details" : "",
            "id" : 32,
            "owner" : 65,
            "pallet_height" : null,
            "pallet_length" : null,
            "pallet_number" : null,
            "pallet_width" : null,
            "palletized" : 0,
            "payout" : "1300.00",
            "payout_mile" : "1.63",
            "payout_text" : "",
            "pick_up_address" : "200 Industrial Drive, Jersey City, NJ, 07305",
            "pick_up_dock" : "",
            "pick_up_latitude" : "40.679036",
            "pick_up_longitude" : "-74.08720399999999",
            "pick_up_time_range_end" : "2015-04-25T16:00:57Z",
            "pick_up_time_range_start" : "2015-04-25T16:00:57Z",
            "pick_up_tz" : "US/Eastern",
            "picked_up_at" : null,
            "receiver" : 64,
            "receiver_name" : "Emil",
            "receiver_phone" : "2222222222",
            "shipment_id" : "132",
            "shipper" : 63,
            "shipper_name" : "Joe",
            "shipper_owner" : 2,
            "shipper_phone" : "1111111111",
            "trip_distance_miles" : 796,
            "updated_at" : "2015-06-08T22:20:17.620Z",
            "vehicle_type" : 2,
            "weight" : 50000
        },
        {
            "carrier" : 1,
            "carrier_is_approved" : 1,
            "created_at" : "2015-05-03T18:56:16.424Z",
            "delivered_at" : "2015-05-04T19:16:54Z",
            "delivery_address" : "214 West 29th Street, 5th Floor, New York, NY, 10001",
            "delivery_dock" : "",
            "delivery_latitude" : "40.7481213",
            "delivery_longitude" : "-73.99388399999998",
            "delivery_status" : 4,
            "delivery_time_range_end" : "2015-05-09T18:45:37Z",
            "delivery_time_range_start" : "2015-05-09T18:45:37Z",
            "delivery_tz" : "US/Eastern",
            "extra_details" : "Good",
            "id" : 39,
            "owner" : 65,
            "pallet_height" : 40,
            "pallet_length" : 80,
            "pallet_number" : 45,
            "pallet_width" : 60,
            "palletized" : 1,
            "payout" : "800.00",
            "payout_mile" : "266.67",
            "payout_text" : "",
            "pick_up_address" : "475 Kent Avenue, Brooklyn, NY, 11249",
            "pick_up_dock" : "",
            "pick_up_latitude" : "40.7073855",
            "pick_up_longitude" : "-73.9682621",
            "pick_up_time_range_end" : "2015-05-08T18:45:37Z",
            "pick_up_time_range_start" : "2015-05-08T18:45:37Z",
            "pick_up_tz" : "US/Eastern",
            "picked_up_at" : "2015-05-04T19:16:47Z",
            "receiver" : 78,
            "receiver_name" : "ERA",
            "receiver_phone" : "3478962804",
            "shipment_id" : "139",
            "shipper" : 77,
            "shipper_name" : "Emil",
            "shipper_owner" : 2,
            "shipper_phone" : "3478962804",
            "trip_distance_miles" : 3,
            "updated_at" : "2015-06-08T22:20:17.658Z",
            "vehicle_type" : 2,
            "weight" : 1700
        },
        {
            "carrier" : 1,
            "carrier_is_approved" : 1,
            "created_at" : "2015-05-04T21:25:52.560Z",
            "delivered_at" : "2015-05-04T21:36:55Z",
            "delivery_address" : "6833 WEST 75TH STREET, Chicago, IL, 60638",
            "delivery_dock" : "",
            "delivery_latitude" : "41.7547941",
            "delivery_longitude" : "-87.79017090000002",
            "delivery_status" : 4,
            "delivery_time_range_end" : "2015-05-16T22:15:39Z",
            "delivery_time_range_start" : "2015-05-16T22:15:39Z",
            "delivery_tz" : "US/Central",
            "extra_details" : "Stacked on top of each other",
            "id" : 40,
            "owner" : 65,
            "pallet_height" : 40,
            "pallet_length" : 20,
            "pallet_number" : 600,
            "pallet_width" : 30,
            "palletized" : 1,
            "payout" : "6000.00",
            "payout_mile" : "7.54",
            "payout_text" : "",
            "pick_up_address" : "200 Industrial Drive, Jersey City, NJ, 07305",
            "pick_up_dock" : "",
            "pick_up_latitude" : "40.679036",
            "pick_up_longitude" : "-74.08720399999999",
            "pick_up_time_range_end" : "2015-05-14T21:15:39Z",
            "pick_up_time_range_start" : "2015-05-14T21:15:39Z",
            "pick_up_tz" : "US/Eastern",
            "picked_up_at" : null,
            "receiver" : 80,
            "receiver_name" : "Emil",
            "receiver_phone" : "2222222222",
            "shipment_id" : "140",
            "shipper" : 79,
            "shipper_name" : "Joe",
            "shipper_owner" : 2,
            "shipper_phone" : "1111111111",
            "trip_distance_miles" : 796,
            "updated_at" : "2015-06-08T22:20:17.693Z",
            "vehicle_type" : 2,
            "weight" : 50000
        },
        {
            "carrier" : 1,
            "carrier_is_approved" : 1,
            "created_at" : "2015-05-03T18:42:51.617Z",
            "delivered_at" : null,
            "delivery_address" : "475 Kent Avenue, Brooklyn, NY, 11249",
            "delivery_dock" : "",
            "delivery_latitude" : "40.7073855",
            "delivery_longitude" : "-73.9682621",
            "delivery_status" : 2,
            "delivery_time_range_end" : "2015-05-13T18:30:23Z",
            "delivery_time_range_start" : "2015-05-13T18:30:23Z",
            "delivery_tz" : "US/Eastern",
            "extra_details" : "Beers",
            "id" : 38,
            "owner" : 65,
            "pallet_height" : 500,
            "pallet_length" : 400,
            "pallet_number" : 5,
            "pallet_width" : 600,
            "palletized" : 1,
            "payout" : "500.00",
            "payout_mile" : "166.67",
            "payout_text" : "",
            "pick_up_address" : "214 West 29th Street, 5th Floor, New York, NY, 10001",
            "pick_up_dock" : "",
            "pick_up_latitude" : "40.7481213",
            "pick_up_longitude" : "-73.99388399999998",
            "pick_up_time_range_end" : "2015-05-12T18:30:23Z",
            "pick_up_time_range_start" : "2015-05-12T18:30:23Z",
            "pick_up_tz" : "US/Eastern",
            "picked_up_at" : null,
            "receiver" : 76,
            "receiver_name" : "Emil",
            "receiver_phone" : "3478962804",
            "shipment_id" : "138",
            "shipper" : 75,
            "shipper_name" : "ERA",
            "shipper_owner" : 2,
            "shipper_phone" : "3478962804",
            "trip_distance_miles" : 3,
            "updated_at" : "2015-06-08T22:20:17.727Z",
            "vehicle_type" : 2,
            "weight" : 1500
        },
        {
            "carrier" : null,
            "carrier_is_approved" : 0,
            "created_at" : "2015-05-12T16:14:38.115Z",
            "delivered_at" : null,
            "delivery_address" : "214 West 29th Street, 5th Floor, New York, NY, 10001",
            "delivery_dock" : "",
            "delivery_latitude" : "40.7481213",
            "delivery_longitude" : "-73.99388399999998",
            "delivery_status" : 1,
            "delivery_time_range_end" : "2015-05-14T16:00:38Z",
            "delivery_time_range_start" : "2015-05-14T16:00:38Z",
            "delivery_tz" : "US/Eastern",
            "extra_details" : "details",
            "id" : 47,
            "owner" : 65,
            "pallet_height" : 34,
            "pallet_length" : 36,
            "pallet_number" : 23,
            "pallet_width" : 35,
            "palletized" : 1,
            "payout" : "566.00",
            "payout_mile" : "188.67",
            "payout_text" : "",
            "pick_up_address" : "475 Kent Avenue, Brooklyn, NY, 11249",
            "pick_up_dock" : "",
            "pick_up_latitude" : "40.7073855",
            "pick_up_longitude" : "-73.9682621",
            "pick_up_time_range_end" : "2015-05-13T17:00:38Z",
            "pick_up_time_range_start" : "2015-05-13T17:00:38Z",
            "pick_up_tz" : "US/Central",
            "picked_up_at" : null,
            "receiver" : 94,
            "receiver_name" : "ERA",
            "receiver_phone" : "3478962804",
            "shipment_id" : "147",
            "shipper" : 93,
            "shipper_name" : "Emil",
            "shipper_owner" : 2,
            "shipper_phone" : "3478962804",
            "trip_distance_miles" : 3,
            "updated_at" : "2015-06-08T22:20:17.760Z",
            "vehicle_type" : 2,
            "weight" : 4555
        },
        {
            "carrier" : null,
            "carrier_is_approved" : 0,
            "created_at" : "2015-05-12T16:18:44.272Z",
            "delivered_at" : null,
            "delivery_address" : "200 Industrial Drive, Jersey City, NJ, 07305",
            "delivery_dock" : "",
            "delivery_latitude" : "40.679036",
            "delivery_longitude" : "-74.08720399999999",
            "delivery_status" : 1,
            "delivery_time_range_end" : "2015-05-14T16:15:44Z",
            "delivery_time_range_start" : "2015-05-14T16:15:44Z",
            "delivery_tz" : "US/Eastern",
            "extra_details" : "wer",
            "id" : 48,
            "owner" : 65,
            "pallet_height" : null,
            "pallet_length" : null,
            "pallet_number" : null,
            "pallet_width" : null,
            "palletized" : 0,
            "payout" : "700.00",
            "payout_mile" : "58.33",
            "payout_text" : "",
            "pick_up_address" : "475 Kent Avenue, Brooklyn, NY, 11249",
            "pick_up_dock" : "",
            "pick_up_latitude" : "40.7073855",
            "pick_up_longitude" : "-73.9682621",
            "pick_up_time_range_end" : "2015-05-13T16:15:44Z",
            "pick_up_time_range_start" : "2015-05-13T16:15:44Z",
            "pick_up_tz" : "US/Eastern",
            "picked_up_at" : null,
            "receiver" : 102,
            "receiver_name" : "Joe",
            "receiver_phone" : "1111111111",
            "shipment_id" : "148",
            "shipper" : 101,
            "shipper_name" : "Emil",
            "shipper_owner" : 2,
            "shipper_phone" : "3478962804",
            "trip_distance_miles" : 12,
            "updated_at" : "2015-06-08T22:20:17.792Z",
            "vehicle_type" : 2,
            "weight" : 11
        },
        {
            "carrier" : null,
            "carrier_is_approved" : 0,
            "created_at" : "2015-05-12T22:31:25.225Z",
            "delivered_at" : null,
            "delivery_address" : "500 w 120th st, floor 5, new york, NY, 10025",
            "delivery_dock" : "",
            "delivery_latitude" : "40.8094253",
            "delivery_longitude" : "-73.96004900000003",
            "delivery_status" : 1,
            "delivery_time_range_end" : "2015-05-14T23:30:51Z",
            "delivery_time_range_start" : "2015-05-14T23:30:51Z",
            "delivery_tz" : "US/Central",
            "extra_details" : "",
            "id" : 50,
            "owner" : 73,
            "pallet_height" : null,
            "pallet_length" : null,
            "pallet_number" : null,
            "pallet_width" : null,
            "palletized" : 0,
            "payout" : "500.00",
            "payout_mile" : "45.45",
            "payout_text" : "",
            "pick_up_address" : "440 Carlton Ave, Brooklyn, NY, 11238",
            "pick_up_dock" : "",
            "pick_up_latitude" : "40.6839892",
            "pick_up_longitude" : "-73.97129510000002",
            "pick_up_time_range_end" : "2015-05-13T23:30:51Z",
            "pick_up_time_range_start" : "2015-05-13T23:30:51Z",
            "pick_up_tz" : "US/Central",
            "picked_up_at" : null,
            "receiver" : 106,
            "receiver_name" : "oijoij",
            "receiver_phone" : "8569063460",
            "shipment_id" : "150",
            "shipper" : 105,
            "shipper_name" : "iuhih",
            "shipper_owner" : 8,
            "shipper_phone" : "8569063460",
            "trip_distance_miles" : 11,
            "updated_at" : "2015-06-08T22:20:17.823Z",
            "vehicle_type" : 4,
            "weight" : 90
        },
        {
            "carrier" : 1,
            "carrier_is_approved" : 0,
            "created_at" : "2015-05-10T23:25:49.840Z",
            "delivered_at" : null,
            "delivery_address" : "214 West 29th Street, 5th Floor, New York, NY, 10001",
            "delivery_dock" : "",
            "delivery_latitude" : "40.7481213",
            "delivery_longitude" : "-73.99388399999998",
            "delivery_status" : 5,
            "delivery_time_range_end" : "2015-05-28T02:15:38Z",
            "delivery_time_range_start" : "2015-05-28T02:15:38Z",
            "delivery_tz" : "US/Pacific",
            "extra_details" : "test instructions",
            "id" : 46,
            "owner" : 65,
            "pallet_height" : 22,
            "pallet_length" : 24,
            "pallet_number" : 21,
            "pallet_width" : 23,
            "palletized" : 1,
            "payout" : "500.00",
            "payout_mile" : "166.67",
            "payout_text" : "",
            "pick_up_address" : "475 Kent Avenue, Brooklyn, NY, 11249",
            "pick_up_dock" : "",
            "pick_up_latitude" : "40.7073855",
            "pick_up_longitude" : "-73.9682621",
            "pick_up_time_range_end" : "2015-05-26T23:15:38Z",
            "pick_up_time_range_start" : "2015-05-26T23:15:38Z",
            "pick_up_tz" : "US/Eastern",
            "picked_up_at" : null,
            "receiver" : 91,
            "receiver_name" : "ERA",
            "receiver_phone" : "3478962804",
            "shipment_id" : "146",
            "shipper" : 92,
            "shipper_name" : "Emil",
            "shipper_owner" : 2,
            "shipper_phone" : "3478962804",
            "trip_distance_miles" : 3,
            "updated_at" : "2015-06-08T22:20:17.858Z",
            "vehicle_type" : 2,
            "weight" : 4000
        },
        {
            "carrier" : 49,
            "carrier_is_approved" : 1,
            "created_at" : "2015-05-13T15:27:00.434Z",
            "delivered_at" : "2015-05-13T15:48:19Z",
            "delivery_address" : "475 Kent Avenue, Brooklyn, NY, 11249",
            "delivery_dock" : "",
            "delivery_latitude" : "40.7073855",
            "delivery_longitude" : "-73.9682621",
            "delivery_status" : 4,
            "delivery_time_range_end" : "2015-05-15T15:15:21Z",
            "delivery_time_range_start" : "2015-05-15T15:15:21Z",
            "delivery_tz" : "US/Eastern",
            "extra_details" : "",
            "id" : 55,
            "owner" : 65,
            "pallet_height" : null,
            "pallet_length" : null,
            "pallet_number" : null,
            "pallet_width" : null,
            "palletized" : 0,
            "payout" : "560.00",
            "payout_mile" : "560.00",
            "payout_text" : "",
            "pick_up_address" : "160 Scholes Street,, Apt. 3A, Brooklyn, NY, 11206",
            "pick_up_dock" : "",
            "pick_up_latitude" : "40.7087338",
            "pick_up_longitude" : "-73.94292860000002",
            "pick_up_time_range_end" : "2015-05-14T15:15:21Z",
            "pick_up_time_range_start" : "2015-05-14T15:15:21Z",
            "pick_up_tz" : "US/Eastern",
            "picked_up_at" : null,
            "receiver" : 115,
            "receiver_name" : "Emil",
            "receiver_phone" : "3478962804",
            "shipment_id" : "155",
            "shipper" : 116,
            "shipper_name" : "Williamsburg Groceries",
            "shipper_owner" : 2,
            "shipper_phone" : "4544453412",
            "trip_distance_miles" : 1,
            "updated_at" : "2015-06-08T22:20:17.898Z",
            "vehicle_type" : 2,
            "weight" : 3300
        },
        {
            "carrier" : 1,
            "carrier_is_approved" : 1,
            "created_at" : "2015-05-13T15:07:30.355Z",
            "delivered_at" : null,
            "delivery_address" : "475 Kent Avenue, Brooklyn, NY, 11249",
            "delivery_dock" : "",
            "delivery_latitude" : "40.7073855",
            "delivery_longitude" : "-73.9682621",
            "delivery_status" : 2,
            "delivery_time_range_end" : "2015-05-15T15:00:52Z",
            "delivery_time_range_start" : "2015-05-15T15:00:52Z",
            "delivery_tz" : "US/Eastern",
            "extra_details" : "",
            "id" : 54,
            "owner" : 65,
            "pallet_height" : null,
            "pallet_length" : null,
            "pallet_number" : null,
            "pallet_width" : null,
            "palletized" : 0,
            "payout" : "780.00",
            "payout_mile" : "65.00",
            "payout_text" : "",
            "pick_up_address" : "200 Industrial Drive, Jersey City, NJ, 07305",
            "pick_up_dock" : "",
            "pick_up_latitude" : "40.679036",
            "pick_up_longitude" : "-74.08720399999999",
            "pick_up_time_range_end" : "2015-05-14T15:00:52Z",
            "pick_up_time_range_start" : "2015-05-14T15:00:52Z",
            "pick_up_tz" : "US/Eastern",
            "picked_up_at" : null,
            "receiver" : 113,
            "receiver_name" : "Emil",
            "receiver_phone" : "3478962804",
            "shipment_id" : "154",
            "shipper" : 114,
            "shipper_name" : "Joe",
            "shipper_owner" : 2,
            "shipper_phone" : "1111111111",
            "trip_distance_miles" : 12,
            "updated_at" : "2015-06-08T22:20:17.933Z",
            "vehicle_type" : 2,
            "weight" : 8800
        }
    ]
}
