{
    "count" : 33,
    "next" : "http://example.com/api/shipments/?page=2",
    "previous" : null,
    "results" : [
	{
	    "carrier" : 50,
	    "carrier_is_approved" : 1,
	    "created_at" : "2015-06-08T22:25:18.224Z",
	    "delivered_at" : null,
	    "delivery_address" : "1 Six Flags Blvd, Jackson, NJ, 08527",
	    "delivery_dock" : "",
	    "delivery_latitude" : "40.1386095",
	    "delivery_longitude" : "-74.44069580000001",
	    "delivery_status" : 2,
	    "delivery_time_range_end" : "2015-06-10T23:15:07Z",
	    "delivery_time_range_start" : "2015-06-10T23:15:07Z",
	    "delivery_tz" : "US/Central",
	    "extra_details" : "",
	    "id" : 64,
	    "owner" : 75,
	    "pallet_height" : null,
	    "pallet_length" : null,
	    "pallet_number" : null,
	    "pallet_width" : null,
	    "palletized" : 0,
	    "payout" : "500.00",
	    "payout_mile" : "0.00",
	    "payout_text" : "",
	    "pick_up_address" : "1 Six Flags Blvd, Jackson, NJ, 08527",
	    "pick_up_dock" : "",
	    "pick_up_latitude" : "40.1386095",
	    "pick_up_longitude" : "-74.44069580000001",
	    "pick_up_time_range_end" : "2015-06-09T23:15:07Z",
	    "pick_up_time_range_start" : "2015-06-09T23:15:07Z",
	    "pick_up_tz" : "US/Central",
	    "picked_up_at" : null,
	    "receiver" : 136,
	    "receiver_name" : "John Doe",
	    "receiver_phone" : "8569063460",
	    "shipment_id" : "164",
	    "shipper" : 135,
	    "shipper_name" : "John Doe",
	    "shipper_owner" : null,
	    "shipper_phone" : "8569063460",
	    "trip_distance_miles" : 0,
	    "updated_at" : "2015-06-08T22:26:33.470Z",
	    "vehicle_type" : 3,
	    "weight" : 23
	},
	{
	    "carrier" : null,
	    "carrier_is_approved" : 0,
	    "created_at" : "2015-04-27T22:48:47.820Z",
	    "delivered_at" : null,
	    "delivery_address" : "6833 WEST 75TH STREET, Chicago, IL, 60638",
	    "delivery_dock" : "",
	    "delivery_latitude" : "41.7547941",
	    "delivery_longitude" : "-87.79017090000002",
	    "delivery_status" : 1,
	    "delivery_time_range_end" : "2015-04-29T22:45:09Z",
	    "delivery_time_range_start" : "2015-04-29T22:45:09Z",
	    "delivery_tz" : "US/Eastern",
	    "extra_details" : "",
	    "id" : 35,
	    "owner" : 65,
	    "pallet_height" : null,
	    "pallet_length" : null,
	    "pallet_number" : null,
	    "pallet_width" : null,
	    "palletized" : 0,
	    "payout" : "500.00",
	    "payout_mile" : "0.63",
	    "payout_text" : "",
	    "pick_up_address" : "200 Industrial Drive, Jersey City, NJ, 07305",
	    "pick_up_dock" : "",
	    "pick_up_latitude" : "40.679036",
	    "pick_up_longitude" : "-74.08720399999999",
	    "pick_up_time_range_end" : "2015-04-28T22:45:09Z",
	    "pick_up_time_range_start" : "2015-04-28T22:45:09Z",
	    "pick_up_tz" : "US/Eastern",
	    "picked_up_at" : null,
	    "receiver" : 69,
	    "receiver_name" : "Emil",
	    "receiver_phone" : "2222222222",
	    "shipment_id" : "135",
	    "shipper" : 70,
	    "shipper_name" : "Joe",
	    "shipper_owner" : 2,
	    "shipper_phone" : "1111111111",
	    "trip_distance_miles" : 796,
	    "updated_at" : "2015-06-08T22:20:17.366Z",
	    "vehicle_type" : 2,
	    "weight" : 4000
	},
	{
	    "carrier" : null,
	    "carrier_is_approved" : 0,
	    "created_at" : "2015-04-03T16:19:11.014Z",
	    "delivered_at" : null,
	    "delivery_address" : "214 West 29th Street, 5th Floor, New York, NY, 10001",
	    "delivery_dock" : "",
	    "delivery_latitude" : "40.7481213",
	    "delivery_longitude" : "-73.99388399999998",
	    "delivery_status" : 1,
	    "delivery_time_range_end" : "2015-05-05T18:15:06Z",
	    "delivery_time_range_start" : "2015-05-05T18:15:06Z",
	    "delivery_tz" : "US/Mountain",
	    "extra_details" : "To be left at the front.",
	    "id" : 5,
	    "owner" : 65,
	    "pallet_height" : 10,
	    "pallet_length" : 30,
	    "pallet_number" : 40,
	    "pallet_width" : 20,
	    "palletized" : 1,
	    "payout" : "15000.00",
	    "payout_mile" : "5000.00",
	    "payout_text" : "",
	    "pick_up_address" : "475 Kent Avenue, Brooklyn, NY, 11249",
	    "pick_up_dock" : "",
	    "pick_up_latitude" : "40.7073855",
	    "pick_up_longitude" : "-73.9682621",
	    "pick_up_time_range_end" : "2015-05-04T16:15:06Z",
	    "pick_up_time_range_start" : "2015-05-04T16:15:06Z",
	    "pick_up_tz" : "US/Eastern",
	    "picked_up_at" : null,
	    "receiver" : 10,
	    "receiver_name" : "ERA",
	    "receiver_phone" : "3478962804",
	    "shipment_id" : "105",
	    "shipper" : 9,
	    "shipper_name" : "Emil",
	    "shipper_owner" : 2,
	    "shipper_phone" : "3478962804",
	    "trip_distance_miles" : 3,
	    "updated_at" : "2015-06-08T22:20:17.398Z",
	    "vehicle_type" : 1,
	    "weight" : 3000
	},
	{
	    "carrier" : 1,
	    "carrier_is_approved" : 1,
	    "created_at" : "2015-05-08T18:41:44.055Z",
	    "delivered_at" : null,
	    "delivery_address" : "6833 WEST 75TH STREET, Chicago, IL, 60638",
	    "delivery_dock" : "",
	    "delivery_latitude" : "41.7547941",
	    "delivery_longitude" : "-87.79017090000002",
	    "delivery_status" : 2,
	    "delivery_time_range_end" : "2015-05-15T20:30:17Z",
	    "delivery_time_range_start" : "2015-05-15T20:30:17Z",
	    "delivery_tz" : "US/Central",
	    "extra_details" : "call warehouse manager one hour before you get there.",
	    "id" : 44,
	    "owner" : 65,
	    "pallet_height" : 30,
	    "pallet_length" : 60,
	    "pallet_number" : 50,
	    "pallet_width" : 50,
	    "palletized" : 1,
	    "payout" : "4000.00",
	    "payout_mile" : "5.02",
	    "payout_text" : "",
	    "pick_up_address" : "214 west 29th street, 5th floor, ERA, Brooklyn, NY, 10001",
	    "pick_up_dock" : "",
	    "pick_up_latitude" : "40.7481213",
	    "pick_up_longitude" : "-73.99388399999998",
	    "pick_up_time_range_end" : "2015-05-13T19:30:17Z",
	    "pick_up_time_range_start" : "2015-05-13T19:30:17Z",
	    "pick_up_tz" : "US/Eastern",
	    "picked_up_at" : null,
	    "receiver" : 87,
	    "receiver_name" : "Emil",
	    "receiver_phone" : "2222222222",
	    "shipment_id" : "144",
	    "shipper" : 88,
	    "shipper_name" : "Emil Nielsen",
	    "shipper_owner" : 2,
	    "shipper_phone" : "3478962804",
	    "trip_distance_miles" : 797,
	    "updated_at" : "2015-06-08T22:20:17.433Z",
	    "vehicle_type" : 2,
	    "weight" : 5000
	},
	{
	    "carrier" : null,
	    "carrier_is_approved" : 0,
	    "created_at" : "2015-04-27T23:08:29.067Z",
	    "delivered_at" : null,
	    "delivery_address" : "200 Industrial Drive, Jersey City, NJ, 07305",
	    "delivery_dock" : "",
	    "delivery_latitude" : "40.679036",
	    "delivery_longitude" : "-74.08720399999999",
	    "delivery_status" : 1,
	    "delivery_time_range_end" : "2015-04-29T23:00:02Z",
	    "delivery_time_range_start" : "2015-04-29T23:00:02Z",
	    "delivery_tz" : "US/Eastern",
	    "extra_details" : "",
	    "id" : 36,
	    "owner" : 65,
	    "pallet_height" : null,
	    "pallet_length" : null,
	    "pallet_number" : null,
	    "pallet_width" : null,
	    "palletized" : 0,
	    "payout" : "500.00",
	    "payout_mile" : "41.67",
	    "payout_text" : "",
	    "pick_up_address" : "475 Kent Avenue, Brooklyn, NY, 11249",
	    "pick_up_dock" : "",
	    "pick_up_latitude" : "40.7073855",
	    "pick_up_longitude" : "-73.9682621",
	    "pick_up_time_range_end" : "2015-04-28T23:00:02Z",
	    "pick_up_time_range_start" : "2015-04-28T23:00:02Z",
	    "pick_up_tz" : "US/Eastern",
	    "picked_up_at" : null,
	    "receiver" : 72,
	    "receiver_name" : "Joe",
	    "receiver_phone" : "1111111111",
	    "shipment_id" : "136",
	    "shipper" : 71,
	    "shipper_name" : "Emil",
	    "shipper_owner" : 2,
	    "shipper_phone" : "3478962804",
	    "trip_distance_miles" : 12,
	    "updated_at" : "2015-06-08T22:20:17.464Z",
	    "vehicle_type" : 2,
	    "weight" : 4000
	},
	{
	    "carrier" : null,
	    "carrier_is_approved" : 0,
	    "created_at" : "2015-06-09T14:40:55.057Z",
	    "delivered_at" : null,
	    "delivery_address" : "214 West 29th Street, 5th Floor, Attn: Impaqd, New York, NY, 10001",
	    "delivery_dock" : "",
	    "delivery_latitude" : "40.7481213",
	    "delivery_longitude" : "-73.99388399999998",
	    "delivery_status" : 1,
	    "delivery_time_range_end" : "2015-06-30T15:30:57Z",
	    "delivery_time_range_start" : "2015-06-30T15:30:57Z",
	    "delivery_tz" : "US/Central",
	    "extra_details" : "",
	    "id" : 65,
	    "owner" : 76,
	    "pallet_height" : null,
	    "pallet_length" : null,
	    "pallet_number" : null,
	    "pallet_width" : null,
	    "palletized" : 0,
	    "payout" : "4000.00",
	    "payout_mile" : "1282.96",
	    "payout_text" : "",
	    "pick_up_address" : "475 Kent Avenue, apt 503, Brooklyn, NY, 11249",
	    "pick_up_dock" : "",
	    "pick_up_latitude" : "40.7073855",
	    "pick_up_longitude" : "-73.9682621",
	    "pick_up_time_range_end" : "2015-06-29T14:30:57Z",
	    "pick_up_time_range_start" : "2015-06-29T14:30:57Z",
	    "pick_up_tz" : "US/Eastern",
	    "picked_up_at" : null,
	    "receiver" : 138,
	    "receiver_name" : "ERA",
	    "receiver_phone" : "1231231231",
	    "shipment_id" : "165",
	    "shipper" : 137,
	    "shipper_name" : "Emil",
	    "shipper_owner" : null,
	    "shipper_phone" : "1231231231",
	    "trip_distance_miles" : 3,
	    "updated_at" : "2015-06-09T14:40:55.058Z",
	    "vehicle_type" : 1,
	    "weight" : 2000
	},
	{
	    "carrier" : null,
	    "carrier_is_approved" : 0,
	    "created_at" : "2015-05-04T21:39:07.141Z",
	    "delivered_at" : null,
	    "delivery_address" : "6833 WEST 75TH STREET, apt 50, Chicago, IL, 60638",
	    "delivery_dock" : "",
	    "delivery_latitude" : "41.7547941",
	    "delivery_longitude" : "-87.79017090000002",
	    "delivery_status" : 1,
	    "delivery_time_range_end" : "2015-05-06T21:15:00Z",
	    "delivery_time_range_start" : "2015-05-06T21:15:00Z",
	    "delivery_tz" : "US/Eastern",
	    "extra_details" : "",
	    "id" : 41,
	    "owner" : 65,
	    "pallet_height" : null,
	    "pallet_length" : null,
	    "pallet_number" : null,
	    "pallet_width" : null,
	    "palletized" : 0,
	    "payout" : "4000.00",
	    "payout_mile" : "5.01",
	    "payout_text" : "",
	    "pick_up_address" : "475 Kent Avenue, Brooklyn, NY, 11249",
	    "pick_up_dock" : "",
	    "pick_up_latitude" : "40.7073855",
	    "pick_up_longitude" : "-73.9682621",
	    "pick_up_time_range_end" : "2015-05-05T22:15:00Z",
	    "pick_up_time_range_start" : "2015-05-05T22:15:00Z",
	    "pick_up_tz" : "US/Central",
	    "picked_up_at" : null,
	    "receiver" : 82,
	    "receiver_name" : "Emil",
	    "receiver_phone" : "2222222222",
	    "shipment_id" : "141",
	    "shipper" : 81,
	    "shipper_name" : "Emil",
	    "shipper_owner" : 2,
	    "shipper_phone" : "3478962804",
	    "trip_distance_miles" : 799,
	    "updated_at" : "2015-06-08T22:20:17.495Z",
	    "vehicle_type" : 2,
	    "weight" : 6973
	},
	{
	    "carrier" : null,
	    "carrier_is_approved" : 0,
	    "created_at" : "2015-04-23T15:24:10.418Z",
	    "delivered_at" : null,
	    "delivery_address" : "201A Export St, Newark, NJ, 07114",
	    "delivery_dock" : "",
	    "delivery_latitude" : "40.6875378",
	    "delivery_longitude" : "-74.14471029999999",
	    "delivery_status" : 1,
	    "delivery_time_range_end" : "2015-04-25T12:00:24Z",
	    "delivery_time_range_start" : "2015-04-25T12:00:24Z",
	    "delivery_tz" : "US/Eastern",
	    "extra_details" : "",
	    "id" : 28,
	    "owner" : 65,
	    "pallet_height" : null,
	    "pallet_length" : null,
	    "pallet_number" : null,
	    "pallet_width" : null,
	    "palletized" : 0,
	    "payout" : "550.00",
	    "payout_mile" : "42.31",
	    "payout_text" : "",
	    "pick_up_address" : "5800 Newkirk Ave, North Bergen, NJ, 07047",
	    "pick_up_dock" : "",
	    "pick_up_latitude" : "40.790626",
	    "pick_up_longitude" : "-74.02361300000001",
	    "pick_up_time_range_end" : "2015-04-24T12:00:24Z",
	    "pick_up_time_range_start" : "2015-04-24T12:00:24Z",
	    "pick_up_tz" : "US/Eastern",
	    "picked_up_at" : null,
	    "receiver" : 56,
	    "receiver_name" : "P Judge & Sons",
	    "receiver_phone" : "2129595643",
	    "shipment_id" : "128",
	    "shipper" : 55,
	    "shipper_name" : "Emil The Shipper",
	    "shipper_owner" : 2,
	    "shipper_phone" : "2129595643",
	    "trip_distance_miles" : 13,
	    "updated_at" : "2015-06-08T22:20:17.526Z",
	    "vehicle_type" : 1,
	    "weight" : 5000
	},
	{
	    "carrier" : null,
	    "carrier_is_approved" : 0,
	    "created_at" : "2015-04-23T15:28:18.248Z",
	    "delivered_at" : null,
	    "delivery_address" : "188 Richards Ave, Norwalk, CT, 06854",
	    "delivery_dock" : "",
	    "delivery_latitude" : "41.102614",
	    "delivery_longitude" : "-73.45029399999999",
	    "delivery_status" : 1,
	    "delivery_time_range_end" : "2015-04-25T12:00:24Z",
	    "delivery_time_range_start" : "2015-04-25T12:00:24Z",
	    "delivery_tz" : "US/Eastern",
	    "extra_details" : "",
	    "id" : 29,
	    "owner" : 65,
	    "pallet_height" : null,
	    "pallet_length" : null,
	    "pallet_number" : null,
	    "pallet_width" : null,
	    "palletized" : 0,
	    "payout" : "1500.00",
	    "payout_mile" : "32.61",
	    "payout_text" : "",
	    "pick_up_address" : "283 NJ-17, Hasbrouck Heights, NJ, 07604",
	    "pick_up_dock" : "",
	    "pick_up_latitude" : "40.8605497",
	    "pick_up_longitude" : "-74.06727849999999",
	    "pick_up_time_range_end" : "2015-04-24T12:00:24Z",
	    "pick_up_time_range_start" : "2015-04-24T12:00:24Z",
	    "pick_up_tz" : "US/Eastern",
	    "picked_up_at" : null,
	    "receiver" : 58,
	    "receiver_name" : "Norwalk CC",
	    "receiver_phone" : "2129595643",
	    "shipment_id" : "129",
	    "shipper" : 57,
	    "shipper_name" : "Emil The Shipper",
	    "shipper_owner" : 2,
	    "shipper_phone" : "2129595643",
	    "trip_distance_miles" : 46,
	    "updated_at" : "2015-06-08T22:20:17.558Z",
	    "vehicle_type" : 1,
	    "weight" : 5000
	},
	{
	    "carrier" : null,
	    "carrier_is_approved" : 0,
	    "created_at" : "2015-04-24T16:04:33.372Z",
	    "delivered_at" : null,
	    "delivery_address" : "200 Industrial Drive, Jersey City, NJ, 07305",
	    "delivery_dock" : "",
	    "delivery_latitude" : "40.679036",
	    "delivery_longitude" : "-74.08720399999999",
	    "delivery_status" : 1,
	    "delivery_time_range_end" : "2015-04-26T16:00:25Z",
	    "delivery_time_range_start" : "2015-04-26T16:00:25Z",
	    "delivery_tz" : "US/Eastern",
	    "extra_details" : "",
	    "id" : 31,
	    "owner" : 65,
	    "pallet_height" : null,
	    "pallet_length" : null,
	    "pallet_number" : null,
	    "pallet_width" : null,
	    "palletized" : 0,
	    "payout" : "500.00",
	    "payout_mile" : "41.67",
	    "payout_text" : "",
	    "pick_up_address" : "475 Kent Avenue, Brooklyn, NY, 11249",
	    "pick_up_dock" : "",
	    "pick_up_latitude" : "40.7073855",
	    "pick_up_longitude" : "-73.9682621",
	    "pick_up_time_range_end" : "2015-04-25T16:00:25Z",
	    "pick_up_time_range_start" : "2015-04-25T16:00:25Z",
	    "pick_up_tz" : "US/Eastern",
	    "picked_up_at" : null,
	    "receiver" : 62,
	    "receiver_name" : "Joe",
	    "receiver_phone" : "1111111111",
	    "shipment_id" : "131",
	    "shipper" : 61,
	    "shipper_name" : "Emil",
	    "shipper_owner" : 2,
	    "shipper_phone" : "3478962804",
	    "trip_distance_miles" : 12,
	    "updated_at" : "2015-06-08T22:20:17.589Z",
	    "vehicle_type" : 2,
	    "weight" : 1300
	}
    ]
}
